{
  "client_id" : "dfa52b2b-2a7b-4d3f-a2ac-4c1bacfeef71",
  "authorization_user_agent" : "DEFAULT",
  "redirect_uri" : "msauth://com.cl.cimconlg/5lzl75evwalLp7R067gZaZO%2Brwo%3D",
  "account_mode" : "SINGLE",
  "broker_redirect_uri_registered": true,
  "authorities" : [
    {
      "type": "AAD",
      "authority_url": "https://login.microsoftonline.com/common"
    }
  ]
}